…
    discoure_markers <- list(
        response_cries = c("\\boh", "\\bah", "aha", "ouch", "yuk"),
        back_channels = c("uh[- ]huh", "uhuh", "yeah"),
        summons = "hey",
        justification = "because"
    )

    model <- presidential_debates_2012 %>%
        with(term_count(dialogue, grouping.var = TRUE, discoure_markers))

    model

    ## Coverage: 13.02% 
    ## # A tibble: 2,912 × 6
    ##       id n.words response_cries back_channels summons justification
    ##    <int>   <int>          <int>         <int>   <int>         <int>
    ## 1      1      10              0             0       0             0
    ## 2      2       9              1             0       0             0
    ## 3      3      14              0             0       0             0
    ## 4      4      14              0             0       0             0
    ## 5      5       5              1             0       0             0
    ## 6      6       5              0             0       0             0
    ## 7      7      40              0             0       0             0
    ## 8      8       2              0             0       0             0
    ## 9      9      20              0             0       2             0
    ## 10    10      13              0             0       1             0
    ## # ... with 2,902 more rows
…
